%YAML 1.1
%TAG !u! tag:unity3d.com,2011:
--- !u!114 &11400000
MonoBehaviour:
  m_ObjectHideFlags: 0
  m_CorrespondingSourceObject: {fileID: 0}
  m_PrefabInstance: {fileID: 0}
  m_PrefabAsset: {fileID: 0}
  m_GameObject: {fileID: 0}
  m_Enabled: 1
  m_EditorHideFlags: 0
  m_Script: {fileID: 11500000, guid: fb453ce0a415cf4408d28cdb075791d1, type: 3}
  m_Name: Flower04
  m_EditorClassIdentifier: 
  _prefab: {fileID: 7847103536844043962, guid: 05ad131c718605c4792edccb8c6307c1, type: 3}
  _Name: Flower04
  _spawnChance: 1
  _prototype: {fileID: 11400000, guid: 110d2ce3897a7104c8f6cc853d4fcf44, type: 2}
  setupFromPrototype: 0
  _flowerSpawnData:
    honeyCapacity:
      useConstant: 0
      constantValue: 0
      variable: {fileID: 11400000, guid: 1d16ca35c77107b46ad216c7236a5c50, type: 2}
    honeyReplenishRate:
      useConstant: 0
      constantValue: 0
      variable: {fileID: 11400000, guid: 319cbb07530512f439c2ad4e1d7717d5, type: 2}
    honeyReplenishAmount:
      useConstant: 0
      constantValue: 0
      variable: {fileID: 11400000, guid: f19822284064b3b49ab50a9e9ee575df, type: 2}
    growSpeed:
      useConstant: 0
      constantValue: 0
      variable: {fileID: 11400000, guid: 5178e88cc138c0443913634788677d3f, type: 2}
    maxBeeNum:
      useConstant: 0
      constantValue: 0
      variable: {fileID: 11400000, guid: f27aeccff2440c84cb1d8d293029b87b, type: 2}
