%YAML 1.1
%TAG !u! tag:unity3d.com,2011:
--- !u!114 &11400000
MonoBehaviour:
  m_ObjectHideFlags: 0
  m_CorrespondingSourceObject: {fileID: 0}
  m_PrefabInstance: {fileID: 0}
  m_PrefabAsset: {fileID: 0}
  m_GameObject: {fileID: 0}
  m_Enabled: 1
  m_EditorHideFlags: 0
  m_Script: {fileID: 11500000, guid: c4d8b838093ec7b4cb46755671eb3c64, type: 3}
  m_Name: HornetSpawnable
  m_EditorClassIdentifier: 
  _prefab: {fileID: 1143632092115255525, guid: b9cdd3e2095d398499de77eeddd993b9, type: 3}
  _Name: Hornet
  _spawnChance: 0
